<svg width="24" height="24" class="arrow" viewBox="0 0 24 24" xmlns="http://www.w3.org/2000/svg">
    <path d="M15.793 4.227c.25.275.274.705.069 1.008l-.069.087L9.704 12l6.09 6.678c.25.275.273.705.068 1.008l-.069.087a.66.66 0 0 1-.919.075l-.079-.075-6.588-7.226a.831.831 0 0 1-.069-1.008l.069-.086 6.588-7.226a.663.663 0 0 1 .998 0z" fill="#969696" fill-rule="evenodd"/>
</svg>
